Analysis
…
# apply loadings to original data, keeping the first 8 components
nyc_pca <- pca_rec_fit |>
  bake(new_data = nyc_vars) |>
  select(1:8)

nyc_pca

# A tibble: 2,327 × 8
     PC1    PC2     PC3    PC4      PC5     PC6    PC7     PC8
   <dbl>  <dbl>   <dbl>  <dbl>    <dbl>   <dbl>  <dbl>   <dbl>
 1 -2.26  0.210  0.488   0.526  0.0751  -0.374   0.485  0.0150
 2 -3.44 -1.36   0.964   1.55   0.367    0.743  -0.812  0.480 
 3 -2.90 -0.317 -2.54   -0.215 -0.647   -0.581  -0.457  0.142 
 4 -2.88 -1.03  -0.403   1.94  -0.0759  -0.286  -1.11   0.404 
 5 -3.11  0.620  0.0721 -0.793  1.13     1.29    1.13   0.682 
 6 -3.86 -2.38   0.898   0.339 -0.993   -0.0900  0.425 -0.574 
 7 -2.00 -0.713  1.25    1.45   0.445    0.180   1.01   0.0311
 8 -1.17  1.39  -0.636  -1.71   0.00544  0.0134  1.17   0.469 
 9 -3.11 -1.72  -1.35   -0.983 -0.825   -0.426  -0.198  0.0832
10 -2.90 -1.57  -2.54   -0.651 -0.511    0.765  -0.792  0.327 
# ℹ 2,317 more rows
…
# Best model has G = 7
glance(nyc_gmmfit)

# A tibble: 1 × 7
  model     G    BIC logLik    df hypvol  nobs
  <chr> <int>  <dbl>  <dbl> <dbl>  <dbl> <int>
1 VVV       7 21928. 11530.   146     NA  2327

augment(nyc_gmmfit)

# A tibble: 2,327 × 7
   Arch1   Arch2   Arch3    Arch4   Arch5 .class .uncertainty
   <dbl>   <dbl>   <dbl>    <dbl>   <dbl> <fct>         <dbl>
 1 0.271 -0.137  -0.0921 -0.146    0.126  4         0.212    
 2 0.489 -0.183  -0.164  -0.0807  -0.0196 4         0.0000209
 3 0.406 -0.441   0.173  -0.0931   0.0130 4         0.0000200
 4 0.401 -0.215  -0.0623 -0.0834  -0.0206 4         0.0000775
 5 0.360 -0.288  -0.0383 -0.175    0.211  4         0.0334   
 6 0.625 -0.268  -0.103  -0.00658 -0.191  4         0.0000910
 7 0.300 -0.0697 -0.104  -0.0782  -0.0402 4         0.000642 
 8 0.206 -0.322   0.0173 -0.0772   0.247  5         0.0107   
 9 0.543 -0.363   0.0982 -0.0135  -0.167  4         0.000255 
10 0.562 -0.465   0.173  -0.00425 -0.192  4         0.000636 
# ℹ 2,317 more rows
…
